generator/GetGenerator.class
repository/Wine.class
generator/RequestAbstractGenerator.class
generator/PostGenerator.class
generator/DeleteGenerator.class
generator/PutGenerator.class
repository/WineRepository.class
engine/WinesGeneratorEngine.class
Application.class
